{"ret_code": 200,
  "ret_msg": "",
  "ret_data":[
      {
      "msg": "您的孩子小楠楠需要在2017年3月13日进行甲肝疫苗免疫。",
      "appo_immune_id":0,
      "user_id":0,
      "user_id_guardian":323,
      "addr":"xx",
      "appo_state":1,
      "appo_immune_time":0,
      "sure_appo_time":0,
      "immune_time":1492916964620,
      "create_time":0
    },{
      "msg": "您的孩子小楠楠需要在2017年3月17日进行复诊",
      "appo_immune_id":0,
      "user_id":0,
      "user_id_guardian":323,
      "addr":"xx",
      "appo_state":2,
      "appo_immune_time":0,
      "sure_appo_time":0,
      "immune_time":1492916964620,
      "create_time":0
    },{
      "msg": "您的健康顾问将在2017年3月13日对您进行回访。",
      "appo_immune_id":0,
      "user_id":0,
      "user_id_guardian":323,
      "addr":"xx",
      "appo_state":3,
      "appo_immune_time":0,
      "sure_appo_time":0,
      "immune_time":1492916964620,
      "create_time":0
    },{
      "msg": "您的健康顾问将在2017年3月13日对您进行回访。",
      "appo_immune_id":0,
      "user_id":0,
      "user_id_guardian":323,
      "addr":"xx",
      "appo_state":3,
      "appo_immune_time":0,
      "sure_appo_time":0,
      "immune_time":1492916964620,
      "create_time":0
    },{
      "msg": "您的健康顾问将在2017年3月13日对您进行回访。",
      "appo_immune_id":0,
      "user_id":0,
      "user_id_guardian":323,
      "addr":"xx",
      "appo_state":3,
      "appo_immune_time":0,
      "sure_appo_time":0,
      "immune_time":1492916964620,
      "create_time":0
    }
  ]
}
