{"ret_code": 200,
  "ret_msg": "",
  "ret_data":{
    "user_id": 1200,
    "name": "张三",
    "age": 14,
    "sex":1,
    "authStr":"abcdefg",
    "head_pic_url":"https://timgsa.baidu.com/timg?image&quality=80&size=b9999_10000&sec=1492768690417&di=2fcf9f605431c4f15a6bc095e819ff68&imgtype=0&src=http%3A%2F%2Fimg1.skqkw.cn%3A888%2F2014%2F11%2F26%2F08%2Fx52h44eacr2-83932.jpg"
  }
}